2. 패키지란? 3. 데이터 처리
…
print(data)

## # A tibble: 1,599 x 13
##        y `fixed acidity` `volatile acidi~ `citric acid` `residual sugar`
##    <dbl>           <dbl>            <dbl>         <dbl>            <dbl>
##  1     0             7.4            0.7            0                 1.9
##  2     0             7.8            0.88           0                 2.6
##  3     0             7.8            0.76           0.04              2.3
##  4     1            11.2            0.28           0.56              1.9
##  5     0             7.4            0.7            0                 1.9
##  6     0             7.4            0.66           0                 1.8
##  7     0             7.9            0.6            0.06              1.6
##  8     1             7.3            0.65           0                 1.2
##  9     1             7.8            0.580          0.02              2  
## 10     0             7.5            0.5            0.36              6.1
## # ... with 1,589 more rows, and 8 more variables: chlorides <dbl>, `free sulfur
## #   dioxide` <dbl>, `total sulfur dioxide` <dbl>, density <dbl>, pH <dbl>,
## #   sulphates <dbl>, alcohol <dbl>, quality <dbl>

웹에 존재하는 csv 데이터도 read_csv() 함수를 통해 쉽게 불러올 수 있음

French Library의 3 factor 데이터 다운로드 (https://mba.tuck.dartmouth.edu/pages/faculty/ken.french/data_library.html)

library(readr)
temp = tempfile()
url = 'https://mba.tuck.dartmouth.edu/pages/faculty/ken.french/ftp/F-F_Research_Data_Factors_CSV.zip'
download.file(url, temp, quiet = TRUE)

ff = read_csv(unz(temp, "F-F_Research_Data_Factors.CSV"), skip = 3)
print(ff)

## # A tibble: 1,221 x 5
##        X1 `Mkt-RF`   SMB   HML    RF
##     <dbl>    <dbl> <dbl> <dbl> <dbl>
##  1 192607     2.96 -2.3  -2.87  0.22
##  2 192608     2.64 -1.4   4.19  0.25
##  3 192609     0.36 -1.32  0.01  0.23
##  4 192610    -3.24  0.04  0.51  0.32
##  5 192611     2.53 -0.2  -0.35  0.31
##  6 192612     2.62 -0.04 -0.02  0.28
##  7 192701    -0.06 -0.56  4.83  0.25
##  8 192702     4.18 -0.1   3.17  0.26
##  9 192703     0.13 -1.6  -2.67  0.3 
## 10 192704     0.46  0.43  0.6   0.25
## # ... with 1,211 more rows
…
그러나 이를 티블 형태로 변환하여 출력하면, 훨씬 깔끔한 형태로 출력이 됨

행과 열의 갯수를 알 수 있으며, 상위 10개 행만이 출력됨

각 컬럼 하부에 데이터 타입이 표시됨

library(tibble)
mtcars %>% as.tibble() %>% print()

## Warning: `as.tibble()` is deprecated, use `as_tibble()` (but mind the new semantics).
## This warning is displayed once per session.

## # A tibble: 32 x 11
##      mpg   cyl  disp    hp  drat    wt  qsec    vs    am  gear  carb
##    <dbl> <dbl> <dbl> <dbl> <dbl> <dbl> <dbl> <dbl> <dbl> <dbl> <dbl>
##  1  21       6  160    110  3.9   2.62  16.5     0     1     4     4
##  2  21       6  160    110  3.9   2.88  17.0     0     1     4     4
##  3  22.8     4  108     93  3.85  2.32  18.6     1     1     4     1
##  4  21.4     6  258    110  3.08  3.22  19.4     1     0     3     1
##  5  18.7     8  360    175  3.15  3.44  17.0     0     0     3     2
##  6  18.1     6  225    105  2.76  3.46  20.2     1     0     3     1
##  7  14.3     8  360    245  3.21  3.57  15.8     0     0     3     4
##  8  24.4     4  147.    62  3.69  3.19  20       1     0     4     2
##  9  22.8     4  141.    95  3.92  3.15  22.9     1     0     4     2
## 10  19.2     6  168.   123  3.92  3.44  18.3     1     0     4     4
## # ... with 22 more rows
…
separate() 함수를 이용하여, Date에서 연도와 월을 각각 분해하여 Year, Month 컬럼을 생성

ff_mod2 = ff_mod %>%
  separate(Date, c('Year', 'Month'), sep = '-')

print(ff_mod2)

## # A tibble: 1,125 x 6
##    Year  Month  `Mkt-RF`     SMB      HML     RF
##    <chr> <chr>     <dbl>   <dbl>    <dbl>  <dbl>
##  1 1926  07     0.0296   -0.023  -0.0287  0.0022
##  2 1926  08     0.0264   -0.0140  0.0419  0.0025
##  3 1926  09     0.0036   -0.0132  0.0001  0.0023
##  4 1926  10    -0.0324    0.0004  0.0051  0.0032
##  5 1926  11     0.0253   -0.002  -0.00350 0.0031
##  6 1926  12     0.0262   -0.0004 -0.0002  0.0028
##  7 1927  01    -0.000600 -0.0056  0.0483  0.0025
##  8 1927  02     0.0418   -0.001   0.0317  0.0026
##  9 1927  03     0.0013   -0.016  -0.0267  0.003 
## 10 1927  04     0.0046    0.0043  0.006   0.0025
## # ... with 1,115 more rows
…
데이터는 크게 wide(가로로 긴 형태)와 long(세로로 긴 형태)로 나눌 수 있음

ggplot에서 그룹 별 그래프를 그리기 위해서는 long 형태로 변형해야 하며, 년/월별 데이터를 보고자 할때는 wide 형태로 변형해야 함

pivot_longer() 함수는 long 형태, pivot_wider() 함수는 wide 형태로 변형함

예제를 위해 2018년~2019년 데이터만 선택

ff_select = ff_mod %>%
  filter(str_sub(Date, 1, 4) %in% c(2018, 2019))

print(ff_select)

## # A tibble: 24 x 5
##    Date     `Mkt-RF`     SMB      HML      RF
##    <chr>       <dbl>   <dbl>    <dbl>   <dbl>
##  1 2018-01  0.0558   -0.0303 -0.0137  0.0011 
##  2 2018-02 -0.0365    0.0026 -0.0119  0.0011 
##  3 2018-03 -0.0235    0.0395 -0.00120 0.00120
##  4 2018-04  0.00290   0.0112  0.0054  0.0014 
##  5 2018-05  0.0265    0.0523 -0.0316  0.0014 
##  6 2018-06  0.00480   0.0118 -0.0238  0.0014 
##  7 2018-07  0.0319   -0.0217  0.0043  0.0016 
##  8 2018-08  0.0344    0.0115 -0.0408  0.0016 
##  9 2018-09  0.000600 -0.0237 -0.013   0.0015 
## 10 2018-10 -0.0768   -0.0476  0.0344  0.0019 
## # ... with 14 more rows
…
인자는 다음과 같음

cols: long 형태로 변형할 컬럼 선택, 마이너스(-)를 입력할 경우 해당 컬럼을 그대로 보존

names_to: 컬럼 이름들이 long 형태로 변형될 때, 해당 컬럼의 이름

values_to: 각 value들이 long 형태로 변형될 때, 해당 컬럼의 이름

ggplot을 이용한 시각화에 필수적으로 사용

ff_select %>%
  gather(key = 'Factor', value = 'Return', -Date)

## # A tibble: 96 x 3
##    Date    Factor    Return
##    <chr>   <chr>      <dbl>
##  1 2018-01 Mkt-RF  0.0558  
##  2 2018-02 Mkt-RF -0.0365  
##  3 2018-03 Mkt-RF -0.0235  
##  4 2018-04 Mkt-RF  0.00290 
##  5 2018-05 Mkt-RF  0.0265  
##  6 2018-06 Mkt-RF  0.00480 
##  7 2018-07 Mkt-RF  0.0319  
##  8 2018-08 Mkt-RF  0.0344  
##  9 2018-09 Mkt-RF  0.000600
## 10 2018-10 Mkt-RF -0.0768  
## # ... with 86 more rows

ff_select %>%
  pivot_longer(cols = -Date, names_to = 'factor', values_to = 'return')

## # A tibble: 96 x 3
##    Date    factor  return
##    <chr>   <chr>    <dbl>
##  1 2018-01 Mkt-RF  0.0558
##  2 2018-01 SMB    -0.0303
##  3 2018-01 HML    -0.0137
##  4 2018-01 RF      0.0011
##  5 2018-02 Mkt-RF -0.0365
##  6 2018-02 SMB     0.0026
##  7 2018-02 HML    -0.0119
##  8 2018-02 RF      0.0011
##  9 2018-03 Mkt-RF -0.0235
## 10 2018-03 SMB     0.0395
## # ... with 86 more rows
…
위데이터를 다시 변경하고 싶을 때는 다음과 같이 쓰면된다

pivot_wider(names_from = ‘factor’,values_from = ‘return’)

f_long = ff_select %>%
  pivot_longer(cols = -Date, names_to = 'factor', values_to = 'return')
f_long

## # A tibble: 96 x 3
##    Date    factor  return
##    <chr>   <chr>    <dbl>
##  1 2018-01 Mkt-RF  0.0558
##  2 2018-01 SMB    -0.0303
##  3 2018-01 HML    -0.0137
##  4 2018-01 RF      0.0011
##  5 2018-02 Mkt-RF -0.0365
##  6 2018-02 SMB     0.0026
##  7 2018-02 HML    -0.0119
##  8 2018-02 RF      0.0011
##  9 2018-03 Mkt-RF -0.0235
## 10 2018-03 SMB     0.0395
## # ... with 86 more rows

f_long %>% pivot_wider(names_from = 'factor',
              values_from = 'return')

## # A tibble: 24 x 5
##    Date     `Mkt-RF`     SMB      HML      RF
##    <chr>       <dbl>   <dbl>    <dbl>   <dbl>
##  1 2018-01  0.0558   -0.0303 -0.0137  0.0011 
##  2 2018-02 -0.0365    0.0026 -0.0119  0.0011 
##  3 2018-03 -0.0235    0.0395 -0.00120 0.00120
##  4 2018-04  0.00290   0.0112  0.0054  0.0014 
##  5 2018-05  0.0265    0.0523 -0.0316  0.0014 
##  6 2018-06  0.00480   0.0118 -0.0238  0.0014 
##  7 2018-07  0.0319   -0.0217  0.0043  0.0016 
##  8 2018-08  0.0344    0.0115 -0.0408  0.0016 
##  9 2018-09  0.000600 -0.0237 -0.013   0.0015 
## 10 2018-10 -0.0768   -0.0476  0.0344  0.0019 
## # ... with 14 more rows
…
3 Factor 테이블(ff_mod)의 Date와 애플 수익률(ret_mod)의 Index가 매칭되므로, 이를 이용해 테이블을 합쳐줌

df = left_join(ff_mod, ret_mod,
                         by = c('Date' = 'Index')) %>% na.omit()
                                
print(df)

## # A tibble: 471 x 6
##    Date    `Mkt-RF`     SMB     HML     RF    AAPL
##    <chr>      <dbl>   <dbl>   <dbl>  <dbl>   <dbl>
##  1 1981-01 -0.0504   0.03    0.0684 0.0104 -0.172 
##  2 1981-02  0.00570 -0.0031  0.0097 0.0107 -0.0619
##  3 1981-03  0.0356   0.0358  0.0067 0.0121 -0.0755
##  4 1981-04 -0.0211   0.0442  0.0226 0.0108  0.158 
##  5 1981-05  0.0011   0.02   -0.0043 0.0115  0.167 
##  6 1981-06 -0.0236  -0.0085  0.0513 0.0135 -0.215 
##  7 1981-07 -0.0154  -0.0218 -0.0066 0.0124 -0.0385
##  8 1981-08 -0.0704  -0.0195  0.0484 0.0128 -0.195 
##  9 1981-09 -0.0717  -0.0266  0.052  0.0124 -0.242 
## 10 1981-10  0.0492   0.0213 -0.0421 0.0121  0.312 
## # ... with 461 more rows
…
